…
We can examine the object created by tuning.

``` r
readd(xgb_reg_bayes_tune)
#> #  5-fold cross-validation using stratification 
#> # A tibble: 105 x 6
#>    splits          id    .metrics         .notes         .predictions        .iter
#>  * <list>          <chr> <list>           <list>         <list>              <dbl>
#>  1 <split [640/16… Fold1 <tibble [192 × … <tibble [0 × … <tibble [31,104 × …     0
#>  2 <split [642/16… Fold2 <tibble [192 × … <tibble [0 × … <tibble [30,720 × …     0
#>  3 <split [642/16… Fold3 <tibble [192 × … <tibble [0 × … <tibble [30,720 × …     0
#>  4 <split [642/16… Fold4 <tibble [192 × … <tibble [0 × … <tibble [30,720 × …     0
#>  5 <split [642/16… Fold5 <tibble [192 × … <tibble [0 × … <tibble [30,720 × …     0
#>  6 <split [640/16… Fold1 <tibble [1 × 7]> <tibble [0 × … <tibble [162 × 8]>      1
#>  7 <split [642/16… Fold2 <tibble [1 × 7]> <tibble [0 × … <tibble [160 × 8]>      1
#>  8 <split [642/16… Fold3 <tibble [1 × 7]> <tibble [0 × … <tibble [160 × 8]>      1
#>  9 <split [642/16… Fold4 <tibble [1 × 7]> <tibble [0 × … <tibble [160 × 8]>      1
#> 10 <split [642/16… Fold5 <tibble [1 × 7]> <tibble [0 × … <tibble [160 × 8]>      1
#> # … with 95 more rows
```
…
# Model evaluation

The [`{yardstick}`](https://tidymodels.github.io/yardstick/) package
allows us to extract metrics in a tidy format.

``` r
readd(xgb_reg_bayes_tune) %>% 
    collect_metrics()
#> # A tibble: 212 x 10
#>     mtry min_n tree_depth sample_size .iter .metric .estimator  mean     n std_err
#>    <int> <int>      <int>       <dbl> <dbl> <chr>   <chr>      <dbl> <int>   <dbl>
#>  1    23     2          4        0.5      0 roc_auc binary     0.798     5  0.0255
#>  2    23     2          4        0.75     0 roc_auc binary     0.800     5  0.0221
#>  3    23     2          4        1        0 roc_auc binary     0.797     5  0.0232
#>  4    23     2          6        0.5      0 roc_auc binary     0.796     5  0.0242
#>  5    23     2          6        0.75     0 roc_auc binary     0.802     5  0.0240
#>  6    23     2          6        1        0 roc_auc binary     0.799     5  0.0227
#>  7    23     2          8        0.5      0 roc_auc binary     0.798     5  0.0254
#>  8    23     2          8        0.75     0 roc_auc binary     0.796     5  0.0226
#>  9    23     2          8        1        0 roc_auc binary     0.797     5  0.0219
#> 10    23     2         10        0.5      0 roc_auc binary     0.798     5  0.0249
#> # … with 202 more rows
```
…
``` r
# The tune_results object is a list containing tuning results for all five 
# model types
loadd(tune_results)
```

``` r
map_dfr(tune_results, show_best, metric = "roc_auc", .id = "model") %>% 
    select(model, mean_auc = mean, .iter) %>% 
    arrange(desc(mean_auc)) %>% 
    # Elastic net didn't go through Bayesian Optimisation, so it doesn't have 
    # the .iter variable. Set to 0, i.e. the initial values from grid tuning
    replace_na(list(.iter = 0L))
#> # A tibble: 25 x 3
#>    model         mean_auc .iter
#>    <chr>            <dbl> <dbl>
#>  1 XGBoost          0.802     0
#>  2 XGBoost          0.800     0
#>  3 Random Forest    0.800     0
#>  4 Random Forest    0.799     0
#>  5 XGBoost          0.799     0
#>  6 Random Forest    0.799     0
#>  7 XGBoost          0.799     0
#>  8 XGBoost          0.798     0
#>  9 Random Forest    0.797     0
#> 10 Random Forest    0.797     1
#> # … with 15 more rows
```
…
# Test set performance

XGBoost has performed best overall, so we can evaluate its performance
on the test set.

``` r
xgb_test_preds <- final_fits[["XGBoost"]] %>% 
    predict(new_data = readd(g_test), 
            type = "prob") %>% 
    bind_cols(readd(g_test) %>% 
                  select(outcome))
xgb_test_preds
#> # A tibble: 198 x 3
#>    .pred_bad .pred_good outcome
#>        <dbl>      <dbl> <fct>  
#>  1    0.0499      0.950 good   
#>  2    0.0335      0.967 good   
#>  3    0.662       0.338 bad    
#>  4    0.620       0.380 bad    
#>  5    0.150       0.850 good   
#>  6    0.204       0.796 good   
#>  7    0.0984      0.902 good   
#>  8    0.159       0.841 good   
#>  9    0.238       0.762 good   
#> 10    0.374       0.626 good   
#> # … with 188 more rows
…
